<svg xmlns="http://www.w3.org/2000/svg" version="1.0" width="1687.000000pt" height="107.000000pt" viewBox="0 0 1687.000000 107.000000" preserveAspectRatio="none">

  <g transform="translate(0.000000,107.000000) scale(0.100000,-0.100000)" fill="#09488b" stroke="none">
  <path d="M0 741 l0 -330 52 -10 c102 -21 606 -101 890 -141 1849 -261 3605 -315 5528 -169 883 66 1629 151 3400 384 683 90 1345 174 1690 214 1785 210 3266 300 4774 290 l536 -4 0 48 0 47 -8435 0 -8435 0 0 -329z"/>
  </g>
  </svg>
