<svg width="1440" height="62" viewBox="0 0 1440 62" fill="none" xmlns="http://www.w3.org/2000/svg" preserveAspectRatio="none">
  <path d="M1 38.2781L1.06965 37.783L0.5 37.7029V38.2781V62.02V62.52H1H1439H1439.5V62.02V25.6907V25.2708L1439.09 25.1983C1328.71 5.82813 1264.27 0.5 1167.88 0.499944L1167.87 0.500056C1034.33 2.49888 920.953 15.7913 807.153 29.1331C796.89 30.3363 786.625 31.5398 776.341 32.7354C652.011 47.1906 524.964 60.5009 368.497 58.1116L368.488 58.1115L368.48 58.1116C269.14 59.8155 177.285 54.7332 110.264 49.2247C76.7542 46.4705 49.4538 43.6098 30.5317 41.4378C21.0706 40.3518 13.7042 39.438 8.70346 38.7957C6.20311 38.4746 4.29418 38.2213 3.01059 38.0484C2.36879 37.962 1.88332 37.8956 1.55842 37.8508C1.39597 37.8284 1.27366 37.8115 1.19202 37.8001L1.10014 37.7873L1.07719 37.7841L1.0715 37.7833C1.07025 37.7831 1.06965 37.783 1 38.2781Z" fill="#09488B" stroke="#09488B"/>
  </svg>
